{
  "name": "jm7u5vc-0pavmce",
  "arn": "arn:aws:iam::054747773773:role/jm7u5vc-0pavmce",
  "service": [
    "lambda.amazonaws.com",
    "edgelambda.amazonaws.com"
  ],
  "policy": {
    "Version": "2012-10-17",
    "Statement": [
      {
        "Effect": "Allow",
        "Resource": "*",
        "Action": [
          "logs:CreateLogGroup",
          "logs:CreateLogStream",
          "logs:PutLogEvents"
        ]
      },
      {
        "Effect": "Allow",
        "Resource": "arn:aws:s3:::jm7u5vc-h9w34ct/*",
        "Action": [
          "s3:GetObject",
          "s3:PutObject"
        ]
      }
    ]
  },
  "region": "us-east-1"
}